<?xml version="1.0" encoding="utf-8"?>
<!-- Generator: Adobe Illustrator 21.0.0, SVG Export Plug-In . SVG Version: 6.00 Build 0)  -->
<svg version="1.1" xmlns="http://www.w3.org/2000/svg" xmlns:xlink="http://www.w3.org/1999/xlink" x="0px" y="0px"
	 viewBox="0 0 728.5 572.8" style="enable-background:new 0 0 728.5 572.8;" xml:space="preserve">
<style type="text/css">
	.st0{display:none;}
	.st1{display:inline;}
	.st2{fill:none;stroke:#FFFFFF;stroke-width:2;stroke-miterlimit:10;}
	.st3{fill:none;stroke:#FFFFFF;stroke-width:2;stroke-miterlimit:10;stroke-dasharray:2.1071,4.2142;}
	.st4{fill:none;stroke:#FFFFFF;stroke-width:2;stroke-miterlimit:10;stroke-dasharray:2.2426,4.4852;}
	.st5{fill:none;stroke:#FFFFFF;stroke-width:2;stroke-miterlimit:10;stroke-dasharray:1.7754,3.5508;}
	.st6{fill:none;stroke:#FFFFFF;stroke-width:2;stroke-miterlimit:10;stroke-dasharray:1.9179,3.8358;}
	.st7{fill:none;stroke:#FFFFFF;stroke-width:2;stroke-miterlimit:10;stroke-dasharray:1.93,3.86;}
	.st8{fill:none;stroke:#FFFFFF;stroke-width:2;stroke-miterlimit:10;stroke-dasharray:1.7797,3.5594;}
	.st9{fill:none;stroke:#FFFFFF;stroke-width:2;stroke-miterlimit:10;stroke-dasharray:2.4961,4.9922;}
	.st10{fill:none;stroke:#FFFFFF;stroke-width:2;stroke-miterlimit:10;stroke-dasharray:1.9645,3.929;}
	.st11{fill:none;stroke:#FFFFFF;stroke-width:2;stroke-miterlimit:10;stroke-dasharray:1.884,3.768;}
	.st12{fill:none;stroke:#FFFFFF;stroke-width:2;stroke-miterlimit:10;stroke-dasharray:1.6911,3.3821;}
	.st13{fill:none;stroke:#FFFFFF;stroke-width:2;stroke-miterlimit:10;stroke-dasharray:2.243,4.4859;}
	.st14{fill:none;stroke:#FFFFFF;stroke-width:2;stroke-miterlimit:10;stroke-dasharray:1.9104,3.8207;}
	.st15{fill:none;stroke:#FFFFFF;stroke-width:2;stroke-miterlimit:10;stroke-dasharray:1.7542,3.5083;}
	.st16{fill:none;stroke:#FFFFFF;stroke-width:2;stroke-miterlimit:10;stroke-dasharray:1.9087,3.8174;}
	.st17{fill:none;stroke:#FFFFFF;stroke-width:2;stroke-miterlimit:10;stroke-dasharray:2.2006,4.4011;}
	.st18{fill:none;stroke:#FFFFFF;stroke-width:2;stroke-miterlimit:10;stroke-dasharray:1.7305,3.461;}
	.st19{fill:none;stroke:#FFFFFF;stroke-width:2;stroke-miterlimit:10;stroke-dasharray:1.9085,3.817;}
	.st20{fill:none;stroke:#FFFFFF;stroke-width:2;stroke-miterlimit:10;stroke-dasharray:2.192,4.384;}
	.st21{fill:none;stroke:#FFFFFF;stroke-width:2;stroke-miterlimit:10;stroke-dasharray:1.7214,3.4428;}
	.st22{fill:none;stroke:#FFFFFF;stroke-width:2;stroke-miterlimit:10;stroke-dasharray:1.6394,3.2788;}
	.st23{fill:none;stroke:#FFFFFF;stroke-width:2;stroke-miterlimit:10;stroke-dasharray:1.681,3.362;}
	.st24{fill:none;stroke:#FFFFFF;stroke-width:2;stroke-miterlimit:10;stroke-dasharray:2.1199,4.2399;}
	.st25{fill:none;stroke:#FFFFFF;stroke-width:2;stroke-miterlimit:10;stroke-dasharray:1.915,3.8301;}
	.st26{fill:none;stroke:#FFFFFF;stroke-width:2;stroke-miterlimit:10;stroke-dasharray:2.0251,4.0501;}
	.st27{fill:none;stroke:#FFFFFF;stroke-width:2;stroke-miterlimit:10;stroke-dasharray:2.4858,4.9715;}
	.st28{fill:none;stroke:#FFFFFF;stroke-width:2;stroke-miterlimit:10;stroke-dasharray:1.786,3.5719;}
	.st29{fill:none;stroke:#FFFFFF;stroke-width:2;stroke-miterlimit:10;stroke-dasharray:1.721,3.4419;}
	.st30{fill:none;stroke:#FFFFFF;stroke-width:2;stroke-miterlimit:10;stroke-dasharray:1.0541,2.1083;}
	.st31{fill:none;stroke:#FFFFFF;stroke-width:2;stroke-miterlimit:10;stroke-dasharray:2.0709,4.1418;}
	.st32{fill:none;stroke:#FFFFFF;stroke-width:2;stroke-miterlimit:10;stroke-dasharray:2.0812,4.1625;}
	.st33{fill:none;stroke:#FFFFFF;stroke-width:2;stroke-miterlimit:10;stroke-dasharray:1.9816,3.9631;}
	.st34{fill:none;stroke:#FFFFFF;stroke-width:2;stroke-miterlimit:10;stroke-dasharray:2.0144,4.0288;}
	.st35{fill:none;stroke:#FFFFFF;stroke-width:2;stroke-miterlimit:10;stroke-dasharray:1.8322,3.6643;}
	.st36{fill:none;stroke:#FFFFFF;stroke-width:2;stroke-miterlimit:10;stroke-dasharray:1.1084,2.2168;}
	.st37{fill:none;stroke:#FFFFFF;stroke-width:2;stroke-miterlimit:10;stroke-dasharray:2.2045,4.4091;}
	.st38{fill:none;stroke:#FFFFFF;stroke-width:2;stroke-miterlimit:10;stroke-dasharray:1.9482,3.8963;}
	.st39{fill:none;stroke:#FFFFFF;stroke-width:2;stroke-miterlimit:10;stroke-dasharray:1.8957,3.7913;}
	.st40{fill:none;stroke:#FFFFFF;stroke-width:2;stroke-miterlimit:10;stroke-dasharray:1.6929,3.3858;}
	.st41{fill:none;stroke:#FFFFFF;stroke-width:2;stroke-miterlimit:10;stroke-dasharray:1.5955,3.1911;}
	.st42{fill:none;stroke:#FFFFFF;stroke-width:2;stroke-miterlimit:10;stroke-dasharray:1.9655,3.9311;}
	.st43{fill:none;stroke:#FFFFFF;stroke-width:2;stroke-miterlimit:10;stroke-dasharray:2.0396,4.0792;}
	.st44{fill:none;stroke:#FFFFFF;stroke-width:2;stroke-miterlimit:10;stroke-dasharray:1.3349,2.6699;}
	.st45{fill:none;stroke:#FFFFFF;stroke-width:2;stroke-miterlimit:10;stroke-dasharray:1.2657,2.5315;}
	.st46{fill:none;stroke:#FFFFFF;stroke-width:2;stroke-miterlimit:10;stroke-dasharray:2.5177,5.0354;}
	.st47{fill:none;stroke:#FFFFFF;stroke-width:2;stroke-miterlimit:10;stroke-dasharray:2.0776,4.1553;}
	.st48{fill:none;stroke:#FFFFFF;stroke-width:2;stroke-miterlimit:10;stroke-dasharray:1.1216,2.2433;}
	.st49{fill:none;stroke:#FFFFFF;stroke-width:2;stroke-miterlimit:10;stroke-dasharray:1.935,3.87;}
	.st50{fill:none;stroke:#FFFFFF;stroke-width:2;stroke-miterlimit:10;stroke-dasharray:2.0337,4.0674;}
	.st51{fill:none;stroke:#FFFFFF;stroke-width:2;stroke-miterlimit:10;stroke-dasharray:2.1891,4.3782;}
	.st52{fill:none;stroke:#FFFFFF;stroke-width:2;stroke-miterlimit:10;stroke-dasharray:2.0448,4.0896;}
	.st53{fill:none;stroke:#FFFFFF;stroke-width:2;stroke-miterlimit:10;stroke-dasharray:1.5994,3.1987;}
	.st54{fill:none;stroke:#FFFFFF;stroke-width:2;stroke-miterlimit:10;stroke-dasharray:1.83,3.66;}
	.st55{fill:none;stroke:#FFFFFF;stroke-width:2;stroke-miterlimit:10;stroke-dasharray:2.1451,4.2902;}
	.st56{fill:none;stroke:#FFFFFF;stroke-width:2;stroke-miterlimit:10;stroke-dasharray:1.7019,3.4038;}
	.st57{fill:none;stroke:#FFFFFF;stroke-width:2;stroke-miterlimit:10;stroke-dasharray:1.9187,3.8373;}
	.st58{fill:none;stroke:#FFFFFF;stroke-width:2;stroke-miterlimit:10;stroke-dasharray:1.9885,3.977;}
	.st59{fill:none;stroke:#FFFFFF;stroke-width:2;stroke-miterlimit:10;stroke-dasharray:2.1906,4.3813;}
	.st60{fill:none;stroke:#FFFFFF;stroke-width:2;stroke-miterlimit:10;stroke-dasharray:1.0976,2.1951;}
	.st61{fill:none;stroke:#FFFFFF;stroke-width:2;stroke-miterlimit:10;stroke-dasharray:1.7932,3.5863;}
	.st62{fill:none;stroke:#FFFFFF;stroke-width:2;stroke-miterlimit:10;stroke-dasharray:1.7856,3.5713;}
	.st63{fill:none;stroke:#FFFFFF;stroke-width:2;stroke-miterlimit:10;stroke-dasharray:1.2061,2.4122;}
	.st64{fill:none;stroke:#FFFFFF;stroke-width:2;stroke-miterlimit:10;stroke-dasharray:1.9638,3.9276;}
	.st65{fill:none;stroke:#FFFFFF;stroke-width:2;stroke-miterlimit:10;stroke-dasharray:1.6109,3.2219;}
	.st66{fill:none;stroke:#FFFFFF;stroke-width:2;stroke-miterlimit:10;stroke-dasharray:1.9868,3.9736;}
	.st67{fill:none;stroke:#FFFFFF;stroke-width:2;stroke-miterlimit:10;stroke-dasharray:2.1824,4.3649;}
	.st68{fill:none;stroke:#FFFFFF;stroke-width:2;stroke-miterlimit:10;stroke-dasharray:1.4871,2.9742;}
	.st69{fill:none;stroke:#FFFFFF;stroke-width:2;stroke-miterlimit:10;stroke-dasharray:1.8012,3.6025;}
	.st70{fill:none;stroke:#FFFFFF;stroke-width:2;stroke-miterlimit:10;stroke-dasharray:1.598,3.196;}
	.st71{fill:none;stroke:#FFFFFF;stroke-width:2;stroke-miterlimit:10;stroke-dasharray:2.024,4.048;}
	.st72{fill:none;stroke:#FFFFFF;stroke-width:2;stroke-miterlimit:10;stroke-dasharray:2.0562,4.1124;}
	.st73{fill:none;stroke:#FFFFFF;stroke-width:2;stroke-miterlimit:10;stroke-dasharray:1.6373,3.2746;}
	.st74{fill:none;stroke:#FFFFFF;stroke-width:2;stroke-miterlimit:10;stroke-dasharray:2.0661,4.1323;}
	.st75{fill:none;stroke:#FFFFFF;stroke-width:2;stroke-miterlimit:10;stroke-dasharray:1.8392,3.6784;}
	.st76{fill:none;stroke:#FFFFFF;stroke-width:2;stroke-miterlimit:10;stroke-dasharray:1.7794,3.5588;}
	.st77{fill:none;stroke:#FFFFFF;stroke-width:2;stroke-miterlimit:10;stroke-dasharray:1.3155,2.6311;}
	.st78{fill:none;stroke:#FFFFFF;stroke-width:2;stroke-miterlimit:10;stroke-dasharray:1.9513,3.9027;}
	.st79{fill:none;stroke:#FFFFFF;stroke-width:2;stroke-miterlimit:10;stroke-dasharray:1.9665,3.9331;}
	.st80{fill:none;stroke:#FFFFFF;stroke-width:2;stroke-miterlimit:10;stroke-dasharray:1.7793,3.5587;}
	.st81{fill:none;stroke:#FFFFFF;stroke-width:2;stroke-miterlimit:10;stroke-dasharray:1.8736,3.7472;}
	.st82{fill:none;stroke:#FFFFFF;stroke-width:2;stroke-miterlimit:10;stroke-dasharray:2.0817,4.1635;}
	.st83{fill:none;stroke:#FFFFFF;stroke-width:2;stroke-miterlimit:10;stroke-dasharray:1.1166,2.2332;}
	.st84{fill:none;stroke:#FFFFFF;stroke-width:2;stroke-miterlimit:10;stroke-dasharray:2.193,4.386;}
	.st85{fill:none;stroke:#FFFFFF;stroke-width:2;stroke-miterlimit:10;stroke-dasharray:1.9552,3.9105;}
	.st86{fill:none;stroke:#FFFFFF;stroke-width:2;stroke-miterlimit:10;stroke-dasharray:2.1481,4.2962;}
	.st87{fill:none;stroke:#FFFFFF;stroke-width:2;stroke-miterlimit:10;stroke-dasharray:1.4393,2.8787;}
	.st88{fill:none;stroke:#FFFFFF;stroke-width:2;stroke-miterlimit:10;stroke-dasharray:2.019,4.038;}
	.st89{fill:none;stroke:#FFFFFF;stroke-width:2;stroke-miterlimit:10;stroke-dasharray:1.9572,3.9145;}
	.st90{fill:none;stroke:#FFFFFF;stroke-width:2;stroke-miterlimit:10;stroke-dasharray:1.9419,3.8837;}
	.st91{fill:none;stroke:#FFFFFF;stroke-width:2;stroke-miterlimit:10;stroke-dasharray:1.9995,3.999;}
	.st92{fill:none;stroke:#FFFFFF;stroke-width:2;stroke-miterlimit:10;stroke-dasharray:1.9581,3.9163;}
	.st93{fill:none;stroke:#FFFFFF;stroke-width:2;stroke-miterlimit:10;stroke-dasharray:2.1136,4.2272;}
	.st94{fill:none;stroke:#FFFFFF;stroke-width:2;stroke-miterlimit:10;stroke-dasharray:2.0275,4.0551;}
	.st95{fill:none;stroke:#FFFFFF;stroke-width:2;stroke-miterlimit:10;stroke-dasharray:2.1556,4.3112;}
	.st96{fill:none;stroke:#FFFFFF;stroke-width:2;stroke-miterlimit:10;stroke-dasharray:2.1114,4.2228;}
	.st97{fill:none;stroke:#FFFFFF;stroke-width:2;stroke-miterlimit:10;stroke-dasharray:1.5732,3.1464;}
	.st98{fill:none;stroke:#FFFFFF;stroke-width:2;stroke-miterlimit:10;stroke-dasharray:1.7628,3.5255;}
	.st99{fill:none;stroke:#FFFFFF;stroke-width:2;stroke-miterlimit:10;stroke-dasharray:2.0546,4.1092;}
	.st100{fill:none;stroke:#FFFFFF;stroke-width:2;stroke-miterlimit:10;stroke-dasharray:2.4194,4.8387;}
	.st101{fill:none;stroke:#FFFFFF;stroke-width:2;stroke-miterlimit:10;stroke-dasharray:1.8404,3.6809;}
	.st102{fill:none;stroke:#FFFFFF;stroke-width:2;stroke-miterlimit:10;stroke-dasharray:1.839,3.6779;}
</style>
<g id="Ebene_2" class="st0">
	<rect x="-5.8" y="-5.8" class="st1" width="737" height="582"/>
</g>
<g id="Ebene_1">
	<g>
		<g>
			<polyline class="st2" points="49.5,163.3 50.1,162.5 50.7,163.2 			"/>
			<polyline class="st3" points="53.5,166.4 61,175.1 82.5,186.4 			"/>
			<path class="st2" d="M84.4,187.4l0.9,0.5c0,0,0,0.4,0,1"/>
			<path class="st4" d="M87,192.6c1.3,1.3,3,2.8,3.3,3.1"/>
			<polyline class="st2" points="90.9,197.8 91.2,198.8 92.1,199.1 			"/>
			<line class="st5" x1="95.5" y1="200.4" x2="108.7" y2="205.4"/>
			<polyline class="st2" points="110.4,206.1 111.3,206.4 110.8,207.3 			"/>
			<polyline class="st6" points="109,210.6 102.6,222 103.9,228.1 109.3,233.4 			"/>
			<path class="st2" d="M110.6,234.8l0.7,0.7c0,0,0.3-0.1,0.9-0.4"/>
			<path class="st7" d="M115.8,233.7c4.6-1.9,11.1-4.4,11.5-4.3c0.7,0.2,3.9-0.2,3.9-0.2l5,0.7"/>
			<path class="st2" d="M138.1,230.1l1,0.1c0,0,0.1-0.4,0.2-1"/>
			<path class="st8" d="M140.1,225.8c1.1-4.7,2.7-11.3,3.1-11.3c0.3,0,1.4,0,2.5,0"/>
			<path class="st2" d="M147.5,214.5c0.6,0,1,0,1,0l0.6-0.8"/>
			<polyline class="st9" points="152.2,209.8 153.1,208.6 153.1,206.4 153.1,205.1 			"/>
			<polyline class="st2" points="153.1,202.6 153.1,201.6 154.1,201.6 			"/>
			<polyline class="st2" points="157.3,201.6 158.3,201.6 158.3,200.6 			"/>
			<polyline class="st2" points="158.3,200 158.3,199 159.2,198.5 			"/>
			<path class="st2" d="M163.4,196.4l0.9-0.5c0,0-0.1-0.4-0.2-1"/>
			<path class="st10" d="M162.9,191.2c-0.2-0.6-0.4-0.9-0.6-0.9c-0.7,0-9.4-1.1-8.7-1.1s19.9-6.1,19.9-6.1l2.3,1"/>
			<polyline class="st2" points="177.6,184.8 178.5,185.2 179.4,184.8 			"/>
			<path class="st11" d="M182.9,183.4l7.6-3.2c0,0,9.2-6.1,9.4-6.8c0.1-0.2,0.1-0.5,0.1-0.8"/>
			<path class="st2" d="M200,170.7c0-0.6-0.1-1-0.1-1l0.8-0.6"/>
			<line class="st12" x1="203.4" y1="167" x2="206.1" y2="165"/>
			<path class="st2" d="M207.4,163.9l0.8-0.6c0,0-0.3-0.2-0.8-0.5"/>
			<path class="st13" d="M203.7,160.2c-0.6-0.5-1-0.9-0.9-1.1c0.2-0.7,0.4-2.8-0.2-2.6c-0.7,0.2-6.8,0-6.8,0l-0.1,0"/>
			<path class="st2" d="M193.8,155.3l-0.9-0.5c0,0,0.2-0.3,0.6-0.8"/>
			<path class="st14" d="M195.6,150.8c2.5-3.6,5.9-8.5,6.3-8.5c0.5,0,10.4-3.3,15.4-5"/>
			<path class="st2" d="M219.1,136.8c0.6-0.2,0.9-0.3,0.9-0.3l0.9,0.5"/>
			<line class="st15" x1="224" y1="138.6" x2="227" y2="140.3"/>
			<polyline class="st2" points="228.6,141.2 229.4,141.7 230.4,141.4 			"/>
			<path class="st16" d="M234,140.1l10.8-3.7c0,0,9.8-11.2,10.5-11.4c0.7-0.2,14.7,3.7,13.8,3.7c-0.6,0,5.5-7.2,8.8-10.9"/>
			<path class="st2" d="M279.1,116.4c0.4-0.5,0.7-0.7,0.7-0.7h1"/>
			<line class="st17" x1="284.8" y1="114.4" x2="293.7" y2="108.1"/>
			<polyline class="st2" points="295.5,106.8 296.4,106.2 296,105.3 			"/>
			<line class="st18" x1="294.9" y1="102" x2="293.8" y2="98.8"/>
			<polyline class="st2" points="293.2,97.1 292.9,96.2 293.8,95.7 			"/>
			<line class="st19" x1="297.2" y1="94" x2="300.6" y2="92.3"/>
			<polyline class="st2" points="302.3,91.4 303.1,90.9 304.1,91.3 			"/>
			<polyline class="st2" points="305.3,91.7 306.2,92 306.6,93 			"/>
			<line class="st20" x1="308.2" y1="97" x2="312.2" y2="107.2"/>
			<polyline class="st2" points="313.1,109.3 313.4,110.2 314.4,110.3 			"/>
			<polyline class="st21" points="317.8,110.8 319.3,111.1 325.2,112.6 329.2,113.5 331.3,113.3 			"/>
			<path class="st2" d="M333,113.1l1-0.1c0,0,0.2,0.3,0.6,0.8"/>
			<path class="st22" d="M336.8,116.3c0.9,0.9,1.7,1.6,2,1.6c0.5-0.1,3-1.5,4.9-2.6"/>
			<path class="st2" d="M345.1,114.4c0.5-0.3,0.9-0.5,0.9-0.5s-0.2-0.3-0.5-0.9"/>
			<path class="st23" d="M343.8,110.1c-1.5-2.6-3.3-5.7-3.3-6.1c0-0.2,0.1-0.8,0.1-1.5"/>
			<path class="st2" d="M340.9,100.9c0.1-0.6,0.1-1,0.1-1l1-0.2"/>
			<line class="st24" x1="346.1" y1="98.9" x2="356.5" y2="96.8"/>
			<polyline class="st2" points="358.6,96.4 359.6,96.2 359.7,95.2 			"/>
			<path class="st25" d="M360.4,91.4l0.7-4c0,0-5.5-11.6-5.2-12.2c0.2-0.7,3.5-16.6,5.2-16.6c1.1,0,5.8,0.7,8.9,1.3"/>
			<path class="st2" d="M371.9,60.1c0.6,0.1,1,0.2,1,0.2v-1"/>
			<path class="st26" d="M372.2,55.4c-2.2-6.1-8.9-25-8.7-25.7c0.2-0.9,1.5-11.4,1.5-11.4l5.7-5.5"/>
			<path class="st2" d="M372.2,11.4l0.7-0.7c0,0,0.4,0.1,0.9,0.3"/>
			<path class="st27" d="M378.6,12.5c0.9,0.2,1.5,0.3,1.3,0.1c-0.2-0.3-0.2-1.9-0.2-3.5"/>
			<path class="st2" d="M379.9,6.6c0-0.6,0.1-1,0.1-1s0.4,0.1,1,0.2"/>
			<path class="st2" d="M383.3,4c0-0.5,0.1-1,0.1-1s0.4-0.1,1-0.2"/>
			<path class="st28" d="M387.9,2c1.1-0.2,2-0.3,1.9-0.1c-0.1,0.2-0.1,0.9-0.1,1.6"/>
			<path class="st2" d="M389.7,5.3c0,0.6,0.1,1,0.1,1l-1.3,1.1l0.1,1"/>
			<polyline class="st2" points="388.8,11 388.9,12 389.8,12.4 			"/>
			<line class="st29" x1="392.9" y1="13.8" x2="400.8" y2="17.2"/>
			<polyline class="st2" points="402.4,17.9 403.3,18.3 403.7,17.4 			"/>
			<line class="st30" x1="404.4" y1="15.4" x2="405.2" y2="13.5"/>
			<path class="st2" d="M405.6,12.5l0.4-0.9c0,0,0.3-0.1,0.9-0.4"/>
			<path class="st31" d="M410.7,9.5c4.9-2.1,11.8-5,12.3-5c0.9,0,17.1-0.7,17.7-0.7c0.5,0,18.7,9.7,25.7,13.4"/>
			<path class="st2" d="M468.3,18.3c0.6,0.3,0.9,0.5,0.9,0.5l0.1,1"/>
			<line class="st32" x1="469.5" y1="23.9" x2="473.3" y2="84.1"/>
			<path class="st2" d="M473.5,86.2l0.1,1c0,0,0.3,0.2,0.8,0.6"/>
			<path class="st33" d="M477.5,90.2c13.5,10,56.9,42.1,57.5,42.3c0.7,0.2,13.1,6.1,13.1,5.2s4.2-19,3.9-19.1
				c-0.2-0.1-5.7-36.9-5-36.7c0.7,0.2,13.8,0.9,13.8,0.9l16.2,1.7l28.9,17.5"/>
			<polyline class="st2" points="607.6,103.1 608.5,103.6 608.1,104.5 			"/>
			<line class="st34" x1="606.5" y1="108.2" x2="595.2" y2="134.1"/>
			<polyline class="st2" points="594.4,136 594,136.9 594.9,137.4 			"/>
			<line class="st35" x1="598.1" y1="139.2" x2="606" y2="143.8"/>
			<polyline class="st2" points="607.6,144.7 608.5,145.2 608,146.1 			"/>
			<line class="st36" x1="606.9" y1="148" x2="605.8" y2="149.9"/>
			<polyline class="st2" points="605.3,150.9 604.8,151.7 605.5,152.4 			"/>
			<line class="st37" x1="609.3" y1="154.2" x2="613.7" y2="154.8"/>
			<path class="st2" d="M615.9,155.1l1,0.1c0,0,0.2,0.3,0.5,0.9"/>
			<path class="st38" d="M619.2,159.5c0.7,1.4,1.3,2.7,1.3,2.9c0,0.7,18.6,5.9,18.6,5.9l13.8-5.5l12.7,3.2"/>
			<polyline class="st2" points="667.4,166.6 668.4,166.8 668.2,167.8 			"/>
			<line class="st39" x1="667.3" y1="171.5" x2="655.5" y2="219.4"/>
			<polyline class="st2" points="655.1,221.2 654.8,222.2 655.8,222.2 			"/>
			<line class="st40" x1="659.2" y1="222.4" x2="667.7" y2="222.7"/>
			<polyline class="st2" points="669.4,222.8 670.4,222.8 670.4,223.8 			"/>
			<polyline class="st2" points="670.4,228.4 670.4,229.4 671.3,229.8 			"/>
			<line class="st41" x1="674.1" y1="231.2" x2="677" y2="232.6"/>
			<polyline class="st2" points="678.4,233.3 679.3,233.8 679.1,234.7 			"/>
			<polyline class="st42" points="678,238.5 670.4,264.4 666.7,299.4 663.8,303.5 650.9,338.2 			"/>
			<polyline class="st2" points="650.2,340 649.8,340.9 650.3,341.8 			"/>
			<polyline class="st43" points="652.1,345.5 660.1,361.7 654.5,383.7 			"/>
			<polyline class="st2" points="654,385.7 653.8,386.6 654.6,387.2 			"/>
			<line class="st44" x1="656.8" y1="388.7" x2="659" y2="390.2"/>
			<polyline class="st2" points="660.1,390.9 661,391.5 660.5,392.3 			"/>
			<polyline class="st2" points="659.7,393.9 659.2,394.7 658.4,394.2 			"/>
			<line class="st45" x1="656.2" y1="393" x2="654" y2="391.7"/>
			<polyline class="st2" points="652.9,391.1 652,390.6 651.9,391.6 			"/>
			<polyline class="st46" points="651.3,396.6 650.9,400 650.4,401.5 			"/>
			<polyline class="st2" points="649.5,403.9 649.2,404.8 649.8,405.5 			"/>
			<line class="st47" x1="652.6" y1="408.6" x2="655.4" y2="411.7"/>
			<polyline class="st2" points="656.8,413.2 657.5,414 656.5,413.7 			"/>
			<line class="st48" x1="654.4" y1="413" x2="652.3" y2="412.3"/>
			<path class="st2" d="M651.2,411.9l-0.9-0.3c0,0,0.1,0.4,0.2,1"/>
			<path class="st49" d="M653.1,414.9c2.1,0.5,5.3,1,5.3,1h4.3"/>
			<path class="st2" d="M664.6,416h1c0,0-0.2-0.3-0.6-0.8"/>
			<path class="st50" d="M662.6,411.8c-1.7-2.5-3.5-5.3-3.2-5.5c0.4-0.3,5.8-2.3,9.2-3.5"/>
			<path class="st2" d="M670.5,402.1c0.6-0.2,0.9-0.3,0.9-0.3s0.2,0.3,0.5,0.9"/>
			<path class="st51" d="M674.1,406.4c1.8,3.2,3.8,7,3.7,7.4c-0.1,0.3-0.5,1.4-1,2.5"/>
			<path class="st2" d="M676,418.3c-0.2,0.6-0.4,0.9-0.4,0.9l-0.9,0.4"/>
			<polyline class="st2" points="670.2,421.5 669.3,421.9 669.6,422.8 			"/>
			<polyline class="st52" points="670.8,426.7 675.6,442 681.1,445.4 			"/>
			<polyline class="st2" points="682.9,446.5 683.7,447 684.3,446.2 			"/>
			<polyline class="st2" points="685.1,445.2 685.7,444.4 685.1,443.6 			"/>
			<polyline class="st2" points="683.2,441 682.6,440.2 683.6,440.4 			"/>
			<line class="st53" x1="686.8" y1="441" x2="689.9" y2="441.5"/>
			<path class="st2" d="M691.5,441.8l1,0.2c0,0,0.1,0.4,0.4,0.9"/>
			<path class="st54" d="M694.4,446.2c0.9,2,1.9,3.9,2.3,3.8c0.7-0.2,8.5-5.9,8.5-5.9l10.7-0.2"/>
			<polyline class="st2" points="717.7,444 718.7,444 719.2,444.8 			"/>
			<line class="st55" x1="721.3" y1="448.6" x2="723.3" y2="452.4"/>
			<polyline class="st2" points="724.4,454.2 724.8,455.1 724.3,456 			"/>
			<polyline class="st56" points="722.9,459 722.2,461.5 721.7,462.2 			"/>
			<path class="st2" d="M720.6,463.5l-0.6,0.8c0,0,0.2,0.3,0.6,0.8"/>
			<path class="st57" d="M722.7,468.3c1.9,3,4.1,6.5,3.9,6.9c-0.4,0.7,0,10.3,0,10.3l-1.6,7.2l-1.2,24.2"/>
			<path class="st2" d="M723.8,518.9l0,1c0,0-0.3-0.1-0.9-0.3"/>
			<path class="st58" d="M719,518.3c-12.6-4.2-46.2-15.3-47.1-15.5c-1.1-0.2-14.4-7.7-14.4-7.7s-23.8-25.8-24.5-26.2
				c-0.7-0.4-23.8-15.1-24.5-14.9c-0.7,0.2-25.2,9-25.8,9c-0.7,0-9.2-7.9-9.8-7.9c-0.7,0-3.7,2.4-3.7,2.4l-0.4,3.5l-3.5,2.8"/>
			<polyline class="st2" points="563.6,465 562.8,465.6 561.8,465.4 			"/>
			<line class="st59" x1="557.5" y1="464.4" x2="546.8" y2="461.9"/>
			<polyline class="st2" points="544.7,461.5 543.7,461.2 543.6,462.2 			"/>
			<line class="st60" x1="543.4" y1="464.4" x2="543.1" y2="466.6"/>
			<path class="st2" d="M543,467.7l-0.1,1c0,0-0.4,0.1-1,0.3"/>
			<path class="st61" d="M538.8,470.5c-0.3,0.9-0.8,2.8-0.8,2.8l-4.8,3.7"/>
			<polyline class="st2" points="531.8,478.1 531.1,478.7 531.1,479.7 			"/>
			<polyline class="st2" points="531.1,480.6 531.1,481.6 530.2,482.1 			"/>
			<polyline class="st62" points="527.3,484.2 523,487.3 522.3,490.3 517.6,493.7 			"/>
			<polyline class="st2" points="516.1,494.8 515.3,495.4 515.6,496.3 			"/>
			<polyline class="st2" points="515.7,496.6 516,497.5 515.1,498 			"/>
			<line class="st63" x1="513" y1="499.2" x2="510.9" y2="500.4"/>
			<path class="st2" d="M509.8,501l-0.9,0.5c0,0-0.1,0.4-0.1,1"/>
			<path class="st64" d="M508,506.3c-0.1,0.4-0.3,0.6-0.4,0.6c-0.7,0.2-1.5,0.9-2.2,0.9c-0.7,0-6.3,0.4-7,0.9
				c-0.7,0.4-15.1,4.6-15.1,4.6s-12.7-0.7-13.3-0.4c-0.4,0.1-3.3,0.9-5.7,1.5"/>
			<path class="st2" d="M462.5,514.8c-0.6,0.1-1,0.2-1,0.2l0,1"/>
			<line class="st65" x1="461.3" y1="519.3" x2="461" y2="527.3"/>
			<path class="st2" d="M460.9,528.9l0,1c0,0,0.3,0.2,0.8,0.6"/>
			<path class="st66" d="M464.7,533c0.3,0.3,0.4,0.5,0.3,0.6c-0.5,0.2,2.5,19.3,3.7,26.8"/>
			<path class="st2" d="M469,562.4c0.1,0.6,0.2,1,0.2,1l-1-0.3"/>
			<line class="st67" x1="464.1" y1="561.7" x2="447.5" y2="556.3"/>
			<polyline class="st2" points="445.4,555.6 444.4,555.3 443.7,556 			"/>
			<line class="st68" x1="441.7" y1="558.1" x2="439.6" y2="560.3"/>
			<polyline class="st2" points="438.6,561.3 437.9,562.1 436.9,562 			"/>
			<line class="st69" x1="433.3" y1="561.9" x2="424.3" y2="561.7"/>
			<path class="st2" d="M422.5,561.7l-1,0c0,0,0.2,0.4,0.4,0.9"/>
			<path class="st70" d="M423.2,565.4c0.5,1.2,0.9,2.3,0.6,2.3c-0.4,0-3.1,1-5.2,1.7"/>
			<path class="st2" d="M417.2,570c-0.6,0.2-0.9,0.3-0.9,0.3s-0.1-0.4-0.3-0.9"/>
			<path class="st71" d="M414.6,565.6c-1.2-3.3-2.6-7-2.9-7c-0.7,0-21.4-6.1-21.4-6.1l-11.6-2.2l-13.6-5.9l-42.7-7.4l-13.1-10.7
				l-36.5-10.3l-7.1-1.2"/>
			<polyline class="st2" points="263.7,514.3 262.7,514.2 262.4,515.1 			"/>
			<line class="st72" x1="261.2" y1="519.1" x2="253" y2="546.7"/>
			<polyline class="st2" points="252.5,548.6 252.2,549.6 251.2,549.3 			"/>
			<line class="st73" x1="248.1" y1="548.5" x2="244.9" y2="547.7"/>
			<path class="st2" d="M243.3,547.2l-1-0.3c0,0,0,0.4,0,1"/>
			<path class="st74" d="M242.4,552.1c0.1,5.1,0,12.2-0.5,12.2c-0.9,0-9.6-2.6-9.6-2.6L217,550.1"/>
			<polyline class="st2" points="215.4,548.9 214.6,548.3 214.9,547.3 			"/>
			<polyline class="st75" points="216.2,543.9 217,541.7 216.8,540.4 			"/>
			<polyline class="st2" points="216.5,538.6 216.3,537.6 215.3,537.4 			"/>
			<line class="st76" x1="211.9" y1="536.6" x2="197.9" y2="533.6"/>
			<polyline class="st2" points="196.7,532.4 196,531.7 195,532 			"/>
			<line class="st77" x1="192.5" y1="532.9" x2="190.1" y2="533.7"/>
			<polyline class="st2" points="188.8,534.2 187.9,534.5 187,534.1 			"/>
			<polyline class="st78" points="183.5,532.4 166.2,524 158.8,524 143.7,534.4 			"/>
			<polyline class="st2" points="142.1,535.5 141.3,536 140.3,535.8 			"/>
			<polyline class="st79" points="136.5,534.9 121.2,531.4 117,533.8 107.6,533.6 73.3,551.9 			"/>
			<polyline class="st2" points="71.5,552.8 70.6,553.3 70,552.5 			"/>
			<line class="st80" x1="67.8" y1="549.7" x2="65.6" y2="547"/>
			<polyline class="st2" points="64.5,545.6 63.9,544.8 64.6,544.2 			"/>
			<polyline class="st2" points="66.4,542.8 67.1,542.2 67.1,541.2 			"/>
			<polyline class="st2" points="67.1,541 67.1,540 68,539.4 			"/>
			<line class="st81" x1="71.3" y1="537.8" x2="102.2" y2="530.2"/>
			<path class="st2" d="M104,529.7l1-0.2c0,0,0.1-0.4,0.3-0.9"/>
			<path class="st82" d="M106.5,524.5c0.1-0.5,0-0.8-0.2-0.7c-0.8,0.2-2.3-1.2-3-1.3"/>
			<path class="st2" d="M101.7,521.3c-0.4-0.4-0.6-0.8-0.6-0.8l0.5-0.8"/>
			<line class="st83" x1="102.8" y1="517.8" x2="104" y2="515.9"/>
			<polyline class="st2" points="104.7,515 105.2,514.2 104.2,514.3 			"/>
			<polyline class="st84" points="99.9,515 96,515.7 80.5,518.3 76.2,519.3 			"/>
			<polyline class="st2" points="74,519.8 73,520.1 73.1,519.1 			"/>
			<polyline class="st2" points="73.4,515.6 73.5,514.6 74.3,514 			"/>
			<polyline class="st2" points="75.3,513.4 76.1,512.9 75.5,512.1 			"/>
			<polyline class="st85" points="73,509 62.5,496.2 55.3,488.2 			"/>
			<polyline class="st2" points="54,486.7 53.4,485.9 53.9,485.1 			"/>
			<line class="st86" x1="56.4" y1="481.6" x2="58.8" y2="478"/>
			<polyline class="st2" points="60,476.3 60.6,475.5 61.6,475.5 			"/>
			<polyline class="st87" points="64.5,475.6 65.2,475.7 67.1,474.7 			"/>
			<path class="st2" d="M68.4,474.1l0.9-0.4c0,0,0.1-0.4,0.1-1"/>
			<path class="st88" d="M68.7,469.3c-3.3-0.4-23.6-5.2-23.6-5.2l-5.2-0.4l-4.6,1.6"/>
			<polyline class="st2" points="33.3,465.9 32.4,466.3 32.3,465.3 			"/>
			<polyline class="st89" points="31.9,461.4 31.1,452.9 23.6,433.7 4.9,422.5 			"/>
			<polyline class="st2" points="3.3,421.5 2.4,421 3.2,420.4 			"/>
			<line class="st90" x1="6.5" y1="418.3" x2="9.8" y2="416.2"/>
			<polyline class="st2" points="11.4,415.2 12.2,414.6 12.3,413.6 			"/>
			<polyline class="st91" points="12.4,409.7 12.7,403.1 35.4,377.7 37.6,371.8 47.3,338.1 			"/>
			<polyline class="st2" points="47.8,336.2 48.1,335.2 47.4,334.6 			"/>
			<line class="st92" x1="44.4" y1="332.1" x2="41.4" y2="329.5"/>
			<polyline class="st2" points="39.9,328.2 39.1,327.6 39.9,326.9 			"/>
			<line class="st93" x1="43.1" y1="324.1" x2="51" y2="317.2"/>
			<polyline class="st2" points="52.6,315.8 53.4,315.1 52.5,314.6 			"/>
			<path class="st94" d="M49,312.6l-18.1-10.4c0,0-4.4-10.3-4.6-10.9c-0.2-0.7,0.4-5.2,0.4-5.2s4.8-9,4.2-9c-0.4,0-2.7-0.3-4.7-0.6"
				/>
			<path class="st2" d="M24.2,276.1c-0.6-0.1-1-0.2-1-0.2l-0.8,0.7"/>
			<polyline class="st2" points="20.9,278 20.1,278.6 19.1,278.5 			"/>
			<line class="st95" x1="14.8" y1="278" x2="10.6" y2="277.4"/>
			<polyline class="st2" points="8.4,277.2 7.4,277.1 8.2,276.4 			"/>
			<line class="st96" x1="11.3" y1="273.6" x2="19.1" y2="266.5"/>
			<path class="st2" d="M20.7,265.1l0.7-0.7c0,0,0.4,0.1,1,0.3"/>
			<path class="st97" d="M25,264.2c0.4-0.6,1.2-1.6,1.9-2.5"/>
			<path class="st2" d="M28,260.5c0.4-0.5,0.7-0.7,0.7-0.7l0.9,0.4"/>
			<path class="st2" d="M31.9,261.3l0.9,0.4c0,0,0.2-0.3,0.5-0.9"/>
			<path class="st98" d="M34.9,257.7c0.4-0.8,0.5-1.5,0.3-1.7c-0.5-0.3-6.7-4.6-10.2-7"/>
			<path class="st2" d="M23.6,248.1c-0.5-0.4-0.8-0.6-0.8-0.6l0-1"/>
			<polyline class="st99" points="22.9,242.4 23.6,216.7 27.3,205.1 28.4,202.7 28.9,202.4 			"/>
			<polyline class="st2" points="30.5,201.1 31.3,200.5 31.4,199.5 			"/>
			<path class="st2" d="M31.4,199.1l0.1-1c0,0,0.3-0.2,0.8-0.5"/>
			<path class="st100" d="M36.4,194.9c1.7-1.1,3.4-2.2,4-2.7"/>
			<path class="st2" d="M39.8,190.3c-0.1-0.5-0.2-1-0.2-1s0.4-0.2,0.9-0.4"/>
			<path class="st101" d="M43.8,187.3c1.2-0.7,2.3-1.3,2.2-1.6c-0.2-0.5,0.1-4.7-0.2-6.4"/>
			<path class="st2" d="M44.6,178.1c-0.4-0.2-0.8-0.6-0.8-0.6l0.2-1"/>
			<polyline class="st102" points="44.6,172.9 45.1,170.1 48.5,164.8 			"/>
		</g>
	</g>
</g>
</svg>
